/* XPM */
static char * hide_pressed_xpm[] = {
"24 26 3 1",
" 	c None",
".	c #5973EE",
"+	c #F0544C",
"........................",
"........................",
"........................",
"........................",
"........................",
"........................",
"........................",
"........................",
"........................",
"........................",
"........................",
"........................",
"........++++++++........",
"........++++++++........",
"........................",
"........................",
"........................",
"........................",
"........................",
"........................",
"........................",
"........................",
"........................",
"........................",
"........................",
"........................"};
