/* XPM */
static char * menu_pressed_xpm[] = {
"24 16 2 1",
" 	c None",
".	c #5973EE",
"........................",
"........................",
"........................",
"........................",
"........................",
"........................",
"........................",
"........................",
"........................",
"........................",
"........................",
"........................",
"........................",
"........................",
"........................",
"........................"};
