{
    "titre"     :   "Calcul@kart",
    "consigne"  :   "Evite chaque camion en cliquant sur le panneau donnant la réponse au calcul demandé.",
	"opt1"      :   "Vitesse initiale (entre 5 et 10): ",
    "opt2"      :   "Accélération (entre 0.5 et 1.5): ",
    "opt3"      :   "Propositions (entre 3 et 5): ",
	"label3"	:	["3","4","5"],
	"opt4"		:	"Tirages dans les tables de 3 et 4",
	"label4"	:	["0","1","2","3","4","5"],
	"opt5"		:	"Tirages dans les tables de 5 et 6",
	"label5"	:	["0","1","2","3","4","5"],
	"opt6"		:	"Tirages dans les tables de 7",
	"label6"	:	["0","1","2","3","4","5"],
	"opt7"		:	"Tirages dans les tables de 8 et 9",
	"label7"	:	["0","1","2","3","4","5"]
	
}